{"count": 115, "next": "https://api.octopus.energy/v1/electricity-meter-points/1300010021306/meters/22J0278538/consumption/?page=2&period_from=2023-07-03T19%3A24Z&period_to=2023-07-07T19%3A25Z", "previous": null, "results": [{"consumption": 0.08, "interval_start": "2023-07-07T00:30:00+01:00", "interval_end": "2023-07-07T01:00:00+01:00"}, {"consumption": 0.088, "interval_start": "2023-07-07T00:00:00+01:00", "interval_end": "2023-07-07T00:30:00+01:00"}, {"consumption": 0.116, "interval_start": "2023-07-06T23:30:00+01:00", "interval_end": "2023-07-07T00:00:00+01:00"}, {"consumption": 0.117, "interval_start": "2023-07-06T23:00:00+01:00", "interval_end": "2023-07-06T23:30:00+01:00"}, {"consumption": 0.107, "interval_start": "2023-07-06T22:30:00+01:00", "interval_end": "2023-07-06T23:00:00+01:00"}, {"consumption": 0.107, "interval_start": "2023-07-06T22:00:00+01:00", "interval_end": "2023-07-06T22:30:00+01:00"}, {"consumption": 0.11, "interval_start": "2023-07-06T21:30:00+01:00", "interval_end": "2023-07-06T22:00:00+01:00"}, {"consumption": 0.074, "interval_start": "2023-07-06T21:00:00+01:00", "interval_end": "2023-07-06T21:30:00+01:00"}, {"consumption": 0.034, "interval_start": "2023-07-06T20:30:00+01:00", "interval_end": "2023-07-06T21:00:00+01:00"}, {"consumption": 0.045, "interval_start": "2023-07-06T20:00:00+01:00", "interval_end": "2023-07-06T20:30:00+01:00"}, {"consumption": 0.077, "interval_start": "2023-07-06T19:30:00+01:00", "interval_end": "2023-07-06T20:00:00+01:00"}, {"consumption": 0.104, "interval_start": "2023-07-06T19:00:00+01:00", "interval_end": "2023-07-06T19:30:00+01:00"}, {"consumption": 0.036, "interval_start": "2023-07-06T18:30:00+01:00", "interval_end": "2023-07-06T19:00:00+01:00"}, {"consumption": 0.069, "interval_start": "2023-07-06T18:00:00+01:00", "interval_end": "2023-07-06T18:30:00+01:00"}, {"consumption": 0.079, "interval_start": "2023-07-06T17:30:00+01:00", "interval_end": "2023-07-06T18:00:00+01:00"}, {"consumption": 0.589, "interval_start": "2023-07-06T17:00:00+01:00", "interval_end": "2023-07-06T17:30:00+01:00"}, {"consumption": 0.11, "interval_start": "2023-07-06T16:30:00+01:00", "interval_end": "2023-07-06T17:00:00+01:00"}, {"consumption": 0.112, "interval_start": "2023-07-06T16:00:00+01:00", "interval_end": "2023-07-06T16:30:00+01:00"}, {"consumption": 0.099, "interval_start": "2023-07-06T15:30:00+01:00", "interval_end": "2023-07-06T16:00:00+01:00"}, {"consumption": 0.224, "interval_start": "2023-07-06T15:00:00+01:00", "interval_end": "2023-07-06T15:30:00+01:00"}, {"consumption": 2.73, "interval_start": "2023-07-06T14:30:00+01:00", "interval_end": "2023-07-06T15:00:00+01:00"}, {"consumption": 0.885, "interval_start": "2023-07-06T14:00:00+01:00", "interval_end": "2023-07-06T14:30:00+01:00"}, {"consumption": 0.093, "interval_start": "2023-07-06T13:30:00+01:00", "interval_end": "2023-07-06T14:00:00+01:00"}, {"consumption": 0.161, "interval_start": "2023-07-06T13:00:00+01:00", "interval_end": "2023-07-06T13:30:00+01:00"}, {"consumption": 0.434, "interval_start": "2023-07-06T12:30:00+01:00", "interval_end": "2023-07-06T13:00:00+01:00"}, {"consumption": 0.074, "interval_start": "2023-07-06T12:00:00+01:00", "interval_end": "2023-07-06T12:30:00+01:00"}, {"consumption": 0.126, "interval_start": "2023-07-06T11:30:00+01:00", "interval_end": "2023-07-06T12:00:00+01:00"}, {"consumption": 0.062, "interval_start": "2023-07-06T11:00:00+01:00", "interval_end": "2023-07-06T11:30:00+01:00"}, {"consumption": 0.07, "interval_start": "2023-07-06T10:30:00+01:00", "interval_end": "2023-07-06T11:00:00+01:00"}, {"consumption": 0.128, "interval_start": "2023-07-06T10:00:00+01:00", "interval_end": "2023-07-06T10:30:00+01:00"}, {"consumption": 0.069, "interval_start": "2023-07-06T09:30:00+01:00", "interval_end": "2023-07-06T10:00:00+01:00"}, {"consumption": 0.057, "interval_start": "2023-07-06T09:00:00+01:00", "interval_end": "2023-07-06T09:30:00+01:00"}, {"consumption": 0.154, "interval_start": "2023-07-06T08:30:00+01:00", "interval_end": "2023-07-06T09:00:00+01:00"}, {"consumption": 0.166, "interval_start": "2023-07-06T08:00:00+01:00", "interval_end": "2023-07-06T08:30:00+01:00"}, {"consumption": 0.061, "interval_start": "2023-07-06T07:30:00+01:00", "interval_end": "2023-07-06T08:00:00+01:00"}, {"consumption": 0.051, "interval_start": "2023-07-06T07:00:00+01:00", "interval_end": "2023-07-06T07:30:00+01:00"}, {"consumption": 0.044, "interval_start": "2023-07-06T06:30:00+01:00", "interval_end": "2023-07-06T07:00:00+01:00"}, {"consumption": 0.074, "interval_start": "2023-07-06T06:00:00+01:00", "interval_end": "2023-07-06T06:30:00+01:00"}, {"consumption": 0.038, "interval_start": "2023-07-06T05:30:00+01:00", "interval_end": "2023-07-06T06:00:00+01:00"}, {"consumption": 0.071, "interval_start": "2023-07-06T05:00:00+01:00", "interval_end": "2023-07-06T05:30:00+01:00"}, {"consumption": 0.043, "interval_start": "2023-07-06T04:30:00+01:00", "interval_end": "2023-07-06T05:00:00+01:00"}, {"consumption": 0.05, "interval_start": "2023-07-06T04:00:00+01:00", "interval_end": "2023-07-06T04:30:00+01:00"}, {"consumption": 0.062, "interval_start": "2023-07-06T03:30:00+01:00", "interval_end": "2023-07-06T04:00:00+01:00"}, {"consumption": 0.037, "interval_start": "2023-07-06T03:00:00+01:00", "interval_end": "2023-07-06T03:30:00+01:00"}, {"consumption": 0.077, "interval_start": "2023-07-06T02:30:00+01:00", "interval_end": "2023-07-06T03:00:00+01:00"}, {"consumption": 0.037, "interval_start": "2023-07-06T02:00:00+01:00", "interval_end": "2023-07-06T02:30:00+01:00"}, {"consumption": 0.061, "interval_start": "2023-07-06T01:30:00+01:00", "interval_end": "2023-07-06T02:00:00+01:00"}, {"consumption": 0.052, "interval_start": "2023-07-06T01:00:00+01:00", "interval_end": "2023-07-06T01:30:00+01:00"}, {"consumption": 0.048, "interval_start": "2023-07-06T00:30:00+01:00", "interval_end": "2023-07-06T01:00:00+01:00"}, {"consumption": 0.081, "interval_start": "2023-07-06T00:00:00+01:00", "interval_end": "2023-07-06T00:30:00+01:00"}, {"consumption": 0.066, "interval_start": "2023-07-05T23:30:00+01:00", "interval_end": "2023-07-06T00:00:00+01:00"}, {"consumption": 0.112, "interval_start": "2023-07-05T23:00:00+01:00", "interval_end": "2023-07-05T23:30:00+01:00"}, {"consumption": 0.067, "interval_start": "2023-07-05T22:30:00+01:00", "interval_end": "2023-07-05T23:00:00+01:00"}, {"consumption": 0.087, "interval_start": "2023-07-05T22:00:00+01:00", "interval_end": "2023-07-05T22:30:00+01:00"}, {"consumption": 0.073, "interval_start": "2023-07-05T21:30:00+01:00", "interval_end": "2023-07-05T22:00:00+01:00"}, {"consumption": 0.073, "interval_start": "2023-07-05T21:00:00+01:00", "interval_end": "2023-07-05T21:30:00+01:00"}, {"consumption": 0.081, "interval_start": "2023-07-05T20:30:00+01:00", "interval_end": "2023-07-05T21:00:00+01:00"}, {"consumption": 0.06, "interval_start": "2023-07-05T20:00:00+01:00", "interval_end": "2023-07-05T20:30:00+01:00"}, {"consumption": 0.094, "interval_start": "2023-07-05T19:30:00+01:00", "interval_end": "2023-07-05T20:00:00+01:00"}, {"consumption": 0.057, "interval_start": "2023-07-05T19:00:00+01:00", "interval_end": "2023-07-05T19:30:00+01:00"}, {"consumption": 0.264, "interval_start": "2023-07-05T18:30:00+01:00", "interval_end": "2023-07-05T19:00:00+01:00"}, {"consumption": 0.436, "interval_start": "2023-07-05T18:00:00+01:00", "interval_end": "2023-07-05T18:30:00+01:00"}, {"consumption": 0.084, "interval_start": "2023-07-05T17:30:00+01:00", "interval_end": "2023-07-05T18:00:00+01:00"}, {"consumption": 0.087, "interval_start": "2023-07-05T17:00:00+01:00", "interval_end": "2023-07-05T17:30:00+01:00"}, {"consumption": 0.125, "interval_start": "2023-07-05T16:30:00+01:00", "interval_end": "2023-07-05T17:00:00+01:00"}, {"consumption": 0.135, "interval_start": "2023-07-05T16:00:00+01:00", "interval_end": "2023-07-05T16:30:00+01:00"}, {"consumption": 0.201, "interval_start": "2023-07-05T15:30:00+01:00", "interval_end": "2023-07-05T16:00:00+01:00"}, {"consumption": 0.194, "interval_start": "2023-07-05T15:00:00+01:00", "interval_end": "2023-07-05T15:30:00+01:00"}, {"consumption": 0.149, "interval_start": "2023-07-05T14:30:00+01:00", "interval_end": "2023-07-05T15:00:00+01:00"}, {"consumption": 0.467, "interval_start": "2023-07-05T14:00:00+01:00", "interval_end": "2023-07-05T14:30:00+01:00"}, {"consumption": 0.598, "interval_start": "2023-07-05T13:30:00+01:00", "interval_end": "2023-07-05T14:00:00+01:00"}, {"consumption": 0.244, "interval_start": "2023-07-05T13:00:00+01:00", "interval_end": "2023-07-05T13:30:00+01:00"}, {"consumption": 0.752, "interval_start": "2023-07-05T12:30:00+01:00", "interval_end": "2023-07-05T13:00:00+01:00"}, {"consumption": 0.142, "interval_start": "2023-07-05T12:00:00+01:00", "interval_end": "2023-07-05T12:30:00+01:00"}, {"consumption": 0.086, "interval_start": "2023-07-05T11:30:00+01:00", "interval_end": "2023-07-05T12:00:00+01:00"}, {"consumption": 0.128, "interval_start": "2023-07-05T11:00:00+01:00", "interval_end": "2023-07-05T11:30:00+01:00"}, {"consumption": 0.074, "interval_start": "2023-07-05T10:30:00+01:00", "interval_end": "2023-07-05T11:00:00+01:00"}, {"consumption": 0.09, "interval_start": "2023-07-05T10:00:00+01:00", "interval_end": "2023-07-05T10:30:00+01:00"}, {"consumption": 0.116, "interval_start": "2023-07-05T09:30:00+01:00", "interval_end": "2023-07-05T10:00:00+01:00"}, {"consumption": 0.109, "interval_start": "2023-07-05T09:00:00+01:00", "interval_end": "2023-07-05T09:30:00+01:00"}, {"consumption": 0.175, "interval_start": "2023-07-05T08:30:00+01:00", "interval_end": "2023-07-05T09:00:00+01:00"}, {"consumption": 0.151, "interval_start": "2023-07-05T08:00:00+01:00", "interval_end": "2023-07-05T08:30:00+01:00"}, {"consumption": 0.036, "interval_start": "2023-07-05T07:30:00+01:00", "interval_end": "2023-07-05T08:00:00+01:00"}, {"consumption": 0.047, "interval_start": "2023-07-05T07:00:00+01:00", "interval_end": "2023-07-05T07:30:00+01:00"}, {"consumption": 0.073, "interval_start": "2023-07-05T06:30:00+01:00", "interval_end": "2023-07-05T07:00:00+01:00"}, {"consumption": 0.039, "interval_start": "2023-07-05T06:00:00+01:00", "interval_end": "2023-07-05T06:30:00+01:00"}, {"consumption": 0.056, "interval_start": "2023-07-05T05:30:00+01:00", "interval_end": "2023-07-05T06:00:00+01:00"}, {"consumption": 0.079, "interval_start": "2023-07-05T05:00:00+01:00", "interval_end": "2023-07-05T05:30:00+01:00"}, {"consumption": 0.037, "interval_start": "2023-07-05T04:30:00+01:00", "interval_end": "2023-07-05T05:00:00+01:00"}, {"consumption": 0.036, "interval_start": "2023-07-05T04:00:00+01:00", "interval_end": "2023-07-05T04:30:00+01:00"}, {"consumption": 0.044, "interval_start": "2023-07-05T03:30:00+01:00", "interval_end": "2023-07-05T04:00:00+01:00"}, {"consumption": 0.08, "interval_start": "2023-07-05T03:00:00+01:00", "interval_end": "2023-07-05T03:30:00+01:00"}, {"consumption": 0.039, "interval_start": "2023-07-05T02:30:00+01:00", "interval_end": "2023-07-05T03:00:00+01:00"}, {"consumption": 0.047, "interval_start": "2023-07-05T02:00:00+01:00", "interval_end": "2023-07-05T02:30:00+01:00"}, {"consumption": 0.076, "interval_start": "2023-07-05T01:30:00+01:00", "interval_end": "2023-07-05T02:00:00+01:00"}, {"consumption": 0.057, "interval_start": "2023-07-05T01:00:00+01:00", "interval_end": "2023-07-05T01:30:00+01:00"}, {"consumption": 0.08, "interval_start": "2023-07-05T00:30:00+01:00", "interval_end": "2023-07-05T01:00:00+01:00"}, {"consumption": 0.169, "interval_start": "2023-07-05T00:00:00+01:00", "interval_end": "2023-07-05T00:30:00+01:00"}, {"consumption": 0.067, "interval_start": "2023-07-04T23:30:00+01:00", "interval_end": "2023-07-05T00:00:00+01:00"}, {"consumption": 0.095, "interval_start": "2023-07-04T23:00:00+01:00", "interval_end": "2023-07-04T23:30:00+01:00"}]}
